[gd_scene load_steps=4 format=1]

[ext_resource path="res://assets/scripts/Arrow.gd" type="Script" id=1]
[ext_resource path="res://assets/art/Arrow.tex" type="Texture" id=2]

[sub_resource type="RectangleShape2D" id=1]

custom_solver_bias = 0.0
extents = Vector2( 28, 10 )

[node name="Arrow" type="RigidBody2D"]

input/pickable = false
shapes/0/shape = SubResource( 1 )
shapes/0/transform = Matrix32( 1, 0, 0, 1, 0, 0 )
shapes/0/trigger = false
collision/layers = 8
collision/mask = 32772
mode = 0
mass = 1.0
friction = 1.0
bounce = 0.5
gravity_scale = 0.5
custom_integrator = false
continuous_cd = 0
contacts_reported = 2
contact_monitor = true
sleeping = false
can_sleep = true
velocity/linear = Vector2( 0, 0 )
velocity/angular = 0.0
damp_override/linear = -1.0
damp_override/angular = -1.0
script/script = ExtResource( 1 )

[node name="Sprite" type="Sprite" parent="."]

texture = ExtResource( 2 )

[node name="Shape" type="CollisionShape2D" parent="."]

shape = SubResource( 1 )
trigger = false
_update_shape_index = 0


